liearmodels1
…
## [1] 0.2221774

rmse(wiggly_mod, test_df)

## [1] 0.289051

###Repeat to run the train and testing

cv_df = 
  crossv_mc(nonlin_df, 100, test = 0.3) 

cv_df %>% pull(train) %>% .[[1]] %>% as_tibble

## # A tibble: 69 x 3
##       id      x       y
##    <int>  <dbl>   <dbl>
##  1     2 0.372   0.764 
##  2     3 0.573   0.358 
##  3     4 0.908  -3.04  
##  4     6 0.898  -1.99  
##  5     7 0.945  -3.27  
##  6     8 0.661  -0.615 
##  7     9 0.629   0.0878
##  8    10 0.0618  0.392 
##  9    11 0.206   1.63  
## 10    13 0.687  -0.291 
## # ... with 59 more rows

cv_df %>% pull(test) %>% .[[1]] %>% as_tibble

## # A tibble: 31 x 3
##       id     x       y
##    <int> <dbl>   <dbl>
##  1     1 0.266  1.11  
##  2     5 0.202  1.33  
##  3    12 0.177  0.836 
##  4    19 0.380  0.982 
##  5    20 0.777 -0.628 
##  6    22 0.212  0.710 
##  7    23 0.652 -0.0535
##  8    28 0.382  0.932 
##  9    31 0.482  0.498 
## 10    37 0.794 -1.12  
## # ... with 21 more rows
…
try fitting the linear model to all of these

cv_df %>% 
  mutate(
    linear_mods = map(.x = train, ~lm(y ~ x, data = .x)),
    smooth_modes = map(.x = train, ~gam(y ~ s(x), data = .x)),
    wiggly_modes = map(.x = train, ~gam(y ~ s(x, k = 30), sp = 10e-6, data = .x)),
    
    rmse_lin = map2_dbl(.x = linear_mods, .y = test, ~rmse(.x, .y)),
    rmse_smo = map2_dbl(.x = smooth_modes, .y = test, ~rmse(.x, .y)),
    rmse_wig = map2_dbl(.x = wiggly_modes, .y = test, ~rmse(.x, .y))
  )

## # A tibble: 100 x 9
##    train test  .id   linear_mods smooth_modes wiggly_modes rmse_lin
##    <lis> <lis> <chr> <list>      <list>       <list>          <dbl>
##  1 <tib~ <tib~ 001   <lm>        <gam>        <gam>           0.616
##  2 <tib~ <tib~ 002   <lm>        <gam>        <gam>           0.619
##  3 <tib~ <tib~ 003   <lm>        <gam>        <gam>           0.806
##  4 <tib~ <tib~ 004   <lm>        <gam>        <gam>           0.826
##  5 <tib~ <tib~ 005   <lm>        <gam>        <gam>           0.773
##  6 <tib~ <tib~ 006   <lm>        <gam>        <gam>           0.805
##  7 <tib~ <tib~ 007   <lm>        <gam>        <gam>           0.741
##  8 <tib~ <tib~ 008   <lm>        <gam>        <gam>           0.768
##  9 <tib~ <tib~ 009   <lm>        <gam>        <gam>           0.617
## 10 <tib~ <tib~ 010   <lm>        <gam>        <gam>           0.776
## # ... with 90 more rows, and 2 more variables: rmse_smo <dbl>,
## #   rmse_wig <dbl>
…
